Why your employees aren’t engaging with your employee engagement survey – Thomas Hodges
…
Notice that men and women are distributed as evenly as possible, although the odd-number team size means that the minority gender on a team has a higher chance of identification. With even number teams, and an evenly split gender balance, the chance of identification is equal.:

(responses <- create_data(team_size = 4) %>% calculate_perc() %>% run_survey())

# A tibble: 2 × 8
  employee_id gender team       female team_size n_females  perc respond
        <int> <chr>  <chr>       <dbl>     <int>     <dbl> <dbl> <chr>  
1           2 Female Marketing       1         4         2   0.5 Yes    
2           8 Female Accounting      1         4         2   0.5 Yes    

Apart from parity, there is also safety in large numbers, such as 100-person teams:

(responses <- create_data(team_size = 100) %>% calculate_perc() %>% run_survey())

# A tibble: 109 × 8
   employee_id gender team      female team_size n_females  perc respond
         <int> <chr>  <chr>      <dbl>     <int>     <dbl> <dbl> <chr>  
 1           1 Male   Marketing      0       100        50  0.02 Yes    
 2           2 Female Marketing      1       100        50  0.02 Yes    
 3           4 Female Marketing      1       100        50  0.02 Yes    
 4           7 Male   Marketing      0       100        50  0.02 Yes    
 5          10 Female Marketing      1       100        50  0.02 Yes    
 6          12 Female Marketing      1       100        50  0.02 Yes    
 7          16 Female Marketing      1       100        50  0.02 Yes    
 8          17 Male   Marketing      0       100        50  0.02 Yes    
 9          19 Male   Marketing      0       100        50  0.02 Yes    
10          23 Male   Marketing      0       100        50  0.02 Yes    
# ℹ 99 more rows
…
